[
    {
        "id":1,
        "heading":"JP90C0009DA6",
        "title":"Nikko Smart Five (1yr)",
        "summary":"Global bond investors raise bond holdings",
        "client":[
                    {
                        "id" :1,
                        "effect":"positive"
                    },
                    {
                        "id" :2,
                        "effect":"positive"
                    },
                    {
                        "id" :3,
                        "effect":"positive"
                    },
                    {
                        "id" :4,
                        "effect":"positive"
                    },
                    {
                        "id" :6,
                        "effect":"positive"
                    }
                 ],
        "action":"buy",
        "marketEffect":"positive",
        "marketAsessmentType":"Strong",
        "marketOrder":10,
        "rating":{
                    "effect" : "positive",
                    "icon":"circle"
                 },
        "momentum":{
                        "effect" : "positive",
                        "icon":"star"
                   },
        "news":{
                    "effect" : "positive",
                    "icon":"star"
               },
        "social":{
                    "effect" : "positive",
                    "icon":"circle"
                 },
        "newsList":[1,2,3,4,5]
    },
    {
        "id":2,
        "heading":"JP90C0003G30",
        "title":"Daiwa Stock Index 225 Fund",
        "summary":"Japan stocks to rise in 2017",
        "client":[
                    {
                        "id" :1,
                        "effect":"positive"
                    },
                    {
                        "id" :2,
                        "effect":"positive"
                    },
                    {
                        "id" :3,
                        "effect":"positive"
                    },
                    {
                        "id" :5,
                        "effect":"positive"
                    },
                    {
                        "id" :6,
                        "effect":"positive"
                    }
                 ],

        "action":"buy",
        "marketEffect":"positive",
        "marketAsessmentType":"Medium",
        "marketOrder":9,
        "rating":{
                    "effect" : "positive",
                    "icon":"circle"
                 },
        "momentum":{
                        "effect" : "positive",
                        "icon":"circle"
                   },
        "news":{
                    "effect" : "positive",
                    "icon":"star"
               },
        "social":{
                    "effect" : "neutral",
                    "icon":"circle"
                 },
        "newsList":[6,7,8,9,10]
    },
    {
        "id":3,
        "heading":"JP90C0003PS5",
        "title":"Daiwa US-REIT Open A Course",
        "summary":"Rebound expected for Simon Property",
        "client":[
                    {
                        "id" :2,
                        "effect":"negative"
                    }
                 ],
        "action":"buy",
        "marketEffect":"positive",
        "marketAsessmentType":"Low",
        "marketOrder":-1,
        "rating":{
                    "effect" : "neutral",
                    "icon":"circle"
                 },
        "momentum":{
                        "effect" : "positive",
                        "icon":"star"
                   },
        "news":{
                    "effect" : "negative",
                    "icon":"circle"
               },
        "social":{
                    "effect" : "positive",
                    "icon":"circle"
                 },
        "newsList":[]
    },
    {
        "id":4,
        "heading":"JP90C0002T77",
        "title":"Nomura World Six Assets Diversified Stable",
        "summary":"Yield still drawing investors to Asian bonds",
        "client":[
                    {
                        "id" :2,
                        "effect":"positive"
                    },
                    {
                        "id" :3,
                        "effect":"positive"
                    },
                    {
                        "id" :6,
                        "effect":"positive"
                    }
                 ],
        "action":"buy",
        "marketEffect":"positive",
        "marketAsessmentType":"High",
        "marketOrder":7,
        "rating":{
                    "effect" : "positive",
                    "icon":"circle"
                 },
        "momentum":{
                        "effect" : "positive",
                        "icon":"star"
                   },
        "news":{
                    "effect" : "neutral",
                    "icon":"circle"
               },
        "social":{
                    "effect" : "neutral",
                    "icon":"circle"
                 },
        "newsList":[]
    },
    {
        "id":5,
        "heading":"JP90C0001753",
        "title":"AM-One DIAM World REIT Index Fund (M Settle)",
        "summary":"Rebound expected for Simon Property",
        "client":[
                    {
                        "id" :1,
                        "effect":"positive"
                    },
                    {
                        "id" :2,
                        "effect":"positive"
                    },
                    {
                        "id" :5,
                        "effect":"positive"
                    },
                    {
                        "id" :6,
                        "effect":"positive"
                    }
                 ],
        "action":"buy",
        "marketEffect":"positive",
        "marketAsessmentType":"Strong",
        "marketOrder":6,
        "rating":{
                    "effect" : "positive",
                    "icon":"circle"
                 },
        "momentum":{
                        "effect" : "neutral",
                        "icon":"circle"
                   },
        "Alpah":{
                    "effect" : "positive",
                    "icon":"circle"
               },
        "social":{
                    "effect" : "neutral",
                    "icon":"circle"
                 },
        "newsList":[]
    },
    {
        "id":6,
        "heading":"JP90C0008AC0",
        "title":"MUKAM Navio Turkey Bond Fund",
        "summary":"Turkey's annual inflation rate rises less than expected in November",
        "client":[
                    {
                        "id" :1,
                        "effect":"negative"
                    },
                    {
                        "id" :4,
                        "effect":"negative"
                    },
                    {
                        "id" :5,
                        "effect":"negative"
                    }
                 ],
        "action":"sell",
        "marketEffect":"negative",
        "marketAsessmentType":"Strong",
        "marketOrder":5,
        "rating":{
                    "effect" : "negative",
                    "icon":"star"
                 },
        "momentum":{
                        "effect" : "negative",
                        "icon":"star"
                   },
        "news":{
                    "effect" : "negative",
                    "icon":"circle"
               },
        "social":{
                    "effect" : "positive",
                    "icon":"circle"
                 },
        "newsList":[]
    },
     {
        "id":9,
        "heading":"JP90C0004PD5",
        "title":"Fidelity Japan Dividend Growth Equity Fund",
        "summary":"Asian shares broadly up, led by gains in finance stocks",
        "client":[
                    {
                        "id" :3,
                        "effect":"positive"
                    },
                    {
                        "id" :6,
                        "effect":"positive"
                    }
                 ],
        "action":"sell",
        "marketEffect":"negative",
        "marketAsessmentType":"Strong",
        "marketOrder":4,
        "rating":{
                    "effect" : "neutral",
                    "icon":"circle"
                 },
        "momentum":{
                        "effect" : "negative",
                        "icon":"circle"
                   },
        "news":{
                    "effect" : "negative",
                    "icon":"circle"
               },
        "social":{
                    "effect" : "neutral",
                    "icon":"circle"
                 },
        "newsList":[1,2,5]
    },
    {
        "id":11,
        "heading":"JP90C0008E03",
        "title":"Daiwa SB Mexico Bond Open(M Stt)",
        "summary":"Nomura sees risk of Mexican bond sell-off",
        "client":[
                    {
                        "id" :1,
                        "effect":"negative"
                    },
                    {
                        "id" :2,
                        "effect":"negative"
                    },
                    {
                        "id" :3,
                        "effect":"negative"
                    },
                    {
                        "id" :4,
                        "effect":"negative"
                    },
                    {
                        "id" : 6,
                        "effect":"negative"
                    }
                 ],
        "action":"sell",
        "marketEffect":"negative",
        "marketAsessmentType":"Strong",
        "marketOrder":8,
        "rating":{
                    "effect" : "negative",
                    "icon":"circle"
                 },
        "momentum":{
                        "effect" : "negative",
                        "icon":"star"
                   },
        "news":{
                    "effect" : "neutral",
                    "icon":"circle"
               },
        "social":{
                    "effect" : "negative",
                    "icon":"circle"
                 },
        "newsList":[13,14,17,18,19]
    },
    {
        "id":12,
        "heading":"JP90C0006LD9",
        "title":"MUKAM eMAXIS TOPIX Index",
        "summary":"Nikkei follows global markets higher as Italian fears fade for now",
        "client":[
                    {
                        "id" :1,
                        "effect":"positive"
                    }
                 ],
        "action":"buy",
        "marketEffect":"positive",
        "marketAsessmentType":"Strong",
        "rating":{
                    "effect" : "neutral",
                    "icon":"circle"
                 },
        "momentum":{
                        "effect" : "positive",
                        "icon":"star"
                   },
        "news":{
                    "effect" : "neutral",
                    "icon":"circle"
               },
        "social":{
                    "effect" : "neutral",
                    "icon":"circle"
                 },
        "newsList":[]
    },
    {
        "id":13,
        "heading":"JP90C0003UA3",
        "title":"Nikko High Interest Developed Country Bond Open",
        "summary":"Expert - Bond sell off may continue",
        "client":[
                    {
                        "id" :4,
                        "effect":"negative"
                    },
                    {
                        "id" :5,
                        "effect":"negative"
                    }
                 ],
        "action":"sell",
        "marketEffect":"negative",
        "marketAsessmentType":"Strong",
        "rating":{
                    "effect" : "negative",
                    "icon":"circle"
                 },
        "momentum":{
                        "effect" : "positive",
                        "icon":"circle"
                   },
        "news":{
                    "effect" : "negative",
                    "icon":"circle"
               },
        "social":{
                    "effect" : "neutral",
                    "icon":"circle"
                 },
        "newsList":[]
    },
    {
        "id":14,
        "heading":"JP90C0008NY7",
        "title":"Tokio Marine JPY Asset Balance Fund(M Sttl)",
        "summary":"Nikkei 225 up 1.12% on strong dollar, growth outlook, energy issues",
        "client":[
                    {
                        "id" :4,
                        "effect":"positive"
                    },
                    {
                        "id" :5,
                        "effect":"positive"
                    }
                 ],
        "action":"buy",
        "marketEffect":"positive",
        "marketAsessmentType":"Medium",
        "rating":{
                    "effect" : "positive",
                    "icon":"circle"
                 },
        "momentum":{
                        "effect" : "positive",
                        "icon":"circle"
                   },
        "news":{
                    "effect" : "neutral",
                    "icon":"circle"
               },
        "social":{
                    "effect" : "neutral",
                    "icon":"circle"
                 },
        "newsList":[]
    }
]
