[
    {
        "id":1,
        "heading":"$AAPL",
        "title":"Breaking News",
        "summary":"Apple Acquires Tesla in landmark deal",
        "client":[   
                    {
                        "id" :1,
                        "effect":"positive"
                    },                
                    {
                        "id" :2,
                        "effect":"positive"
                    },
                    {
                        "id" :3,
                        "effect":"positive"
                    },
                    {
                        "id" :4,
                        "effect":"positive"
                    },                   
                    {
                        "id" :6,
                        "effect":"positive"
                    }
                 ],
        "action":"buy",
        "marketEffect":"positive",
        "marketAsessmentType":"Strong",
        "marketOrder":10,
        "rating":{
                    "effect" : "positive",
                    "icon":"circle"
                 },
        "momentum":{
                        "effect" : "positive",
                        "icon":"circle"
                   },
        "news":{
                    "effect" : "positive",
                    "icon":"star"
               },
        "social":{
                    "effect" : "positive",
                    "icon":"star"
                 },
        "newsList":[1,2,3,4,5]  
    },
    {
        "id":2,
        "heading":"$D05",
        "title":"CORPORATE ACTION",
        "summary":"DBS beats revenue estimates",
        "client":[  
                    {
                        "id" :1,
                        "effect":"positive"
                    },                  
                    {
                        "id" :2,
                        "effect":"positive"
                    },
                    {
                        "id" :3,
                        "effect":"positive"
                    },
                    {
                        "id" :5,
                        "effect":"positive"
                    },
                    {
                        "id" :6,
                        "effect":"positive"
                    }
                 ],

        "action":"buy",
        "marketEffect":"positive",
        "marketAsessmentType":"Medium",
        "marketOrder":9,
        "rating":{
                    "effect" : "positive",
                    "icon":"circle"
                 },
        "momentum":{
                        "effect" : "positive",
                        "icon":"circle"
                   },
        "news":{
                    "effect" : "positive",
                    "icon":"star"
               },
        "social":{
                    "effect" : "neutral",
                    "icon":"circle"
                 },
        "newsList":[6,7,8,9,10]
    },
    {
        "id":3,
        "heading":"$LLOY",
        "title":"StockReports+",
        "summary":"Lloyds Banking upgrade 6 to 9",
        "client":[                    
                    {
                        "id" :2,
                        "effect":"positive"
                    }
                 ],
        "action":"buy",
        "marketEffect":"positive",
        "marketAsessmentType":"Low",
        "marketOrder":-1,
        "rating":{
                    "effect" : "positive",
                    "icon":"star"
                 },
        "momentum":{
                        "effect" : "positive",
                        "icon":"circle"
                   },
        "news":{
                    "effect" : "neutral",
                    "icon":"circle"
               },
        "social":{
                    "effect" : "neutral",
                    "icon":"circle"
                 },
        "newsList":[]  
    },
    {
        "id":4,
        "heading":"$601318",
        "title":"Starmine",
        "summary":"Uptick in price momentum for ICBC",
        "client":[
                    {
                        "id" :2,
                        "effect":"positive"
                    },
                    {
                        "id" :3,
                        "effect":"positive"
                    },
                    {
                        "id" :6,
                        "effect":"positive"
                    }
                 ],
        "action":"buy",
        "marketEffect":"positive",
        "marketAsessmentType":"High",
        "marketOrder":7,
        "rating":{
                    "effect" : "positive",
                    "icon":"circle"
                 },
        "momentum":{
                        "effect" : "positive",
                        "icon":"star"
                   },
        "news":{
                    "effect" : "neutral",
                    "icon":"circle"
               },
        "social":{
                    "effect" : "positive",
                    "icon":"circle"
                 },
        "newsList":[]  
    },
    {
        "id":5,
        "heading":"$CSCO",
        "title":"Reuters",
        "summary":"Cisco announces new acquisition",
        "client":[
                    {
                        "id" :1,
                        "effect":"positive"
                    },
                    {
                        "id" :2,
                        "effect":"positive"
                    },
                    {
                        "id" :5,
                        "effect":"positive"
                    },
                    {
                        "id" :6,
                        "effect":"positive"
                    }
                 ],
        "action":"buy",
        "marketEffect":"positive",
        "marketAsessmentType":"Strong",
        "marketOrder":6,
        "rating":{
                    "effect" : "neutral",
                    "icon":"circle"
                 },
        "momentum":{
                        "effect" : "neutral",
                        "icon":"circle"
                   },
        "news":{
                    "effect" : "positive",
                    "icon":"circle"
               },
        "social":{
                    "effect" : "neutral",
                    "icon":"circle"
                 },
        "newsList":[]  
    },
    {
        "id":6,
        "heading":"$C6L",
        "title":"MarketPsych",
        "summary":"Negative Buzz for Singapore Airlines",
        "client":[
                    {
                        "id" :1,
                        "effect":"negative"
                    },                   
                    {
                        "id" :4,
                        "effect":"negative"
                    },
                    {
                        "id" :5,
                        "effect":"negative"
                    }
                 ],
        "action":"sell",
        "marketEffect":"positive",
        "marketAsessmentType":"Strong",
        "marketOrder":5,
        "rating":{
                    "effect" : "positive",
                    "icon":"circle"
                 },
        "momentum":{
                        "effect" : "neutral",
                        "icon":"circle"
                   },
        "news":{
                    "effect" : "neutral",
                    "icon":"circle"
               },
        "social":{
                    "effect" : "negative",
                    "icon":"star"
                 },
        "newsList":[]  
    },       
     {
        "id":9,
        "heading":"$KRX",
        "title":"House View",
        "summary":"Kepco Downgraded from HOLD to SELL",
        "client":[                    
                    {
                        "id" :3,
                        "effect":"negative"
                    },
                    {
                        "id" :6,
                        "effect":"negative"
                    }
                 ],
        "action":"sell",
        "marketEffect":"positive",
        "marketAsessmentType":"Strong",
        "marketOrder":4,
        "rating":{
                    "effect" : "neutral",
                    "icon":"circle"
                 },
        "momentum":{
                        "effect" : "neutral",
                        "icon":"circle"
                   },
        "news":{
                    "effect" : "positive",
                    "icon":"circle"
               },
        "social":{
                    "effect" : "neutral",
                    "icon":"circle"
                 },
        "newsList":[1,2,5]  
    },     
    {
        "id":11,
        "heading":"$601318",
        "title":"Broker Ratings",
        "summary":"Ping An share target price lowered to ¥25",
        "client":[    
                    {
                        "id" :1,
                        "effect":"negative"
                    },               
                    {
                        "id" :2,
                        "effect":"negative"
                    },
                    {
                        "id" :3,
                        "effect":"negative"
                    },
                    {
                        "id" :4,
                        "effect":"negative"
                    },
                    {
                        "id" : 6,
                        "effect":"negative"
                    }
                 ],
        "action":"sell",
        "marketEffect":"positive",
        "marketAsessmentType":"Strong",
        "marketOrder":8,
        "rating":{
                    "effect" : "negative",
                    "icon":"circle"
                 },
        "momentum":{
                        "effect" : "neutral",
                        "icon":"circle"
                   },
        "news":{
                    "effect" : "negative",
                    "icon":"star"
               },
        "social":{
                    "effect" : "negative",
                    "icon":"circle"
                 },
        "newsList":[13,14,17,18,19]  
    },
    {
        "id":12,
        "heading":"$005930.KS",
        "title":"Reuters",
        "summary":"Samsung takes fight to Apple with mobile wallet strategy",
        "client":[    
                    {
                        "id" :1,
                        "effect":"negative"
                    }                   
                 ],
        "action":"sell",
        "marketEffect":"positive",
        "marketAsessmentType":"Strong",
        "rating":{
                    "effect" : "negative",
                    "icon":"star"
                 },
        "momentum":{
                        "effect" : "positive",
                        "icon":"circle"
                   },
        "news":{
                    "effect" : "positive",
                    "icon":"circle"
               },
        "social":{
                    "effect" : "positive",
                    "icon":"circle"
                 },
        "newsList":[]  
    },
    {
        "id":13,
        "heading":"$BBY.N",
        "title":"Reuters",
        "summary":"Best Buy CEO nearly halves stake in company",
        "client":[  
                    {
                        "id" :4,
                        "effect":"negative"
                    },  
                    {
                        "id" :5,
                        "effect":"negative"
                    }                   
                 ],
        "action":"sell",
        "marketEffect":"positive",
        "marketAsessmentType":"Strong",
        "rating":{
                    "effect" : "negative",
                    "icon":"star"
                 },
        "momentum":{
                        "effect" : "positive",
                        "icon":"circle"
                   },
        "news":{
                    "effect" : "positive",
                    "icon":"circle"
               },
        "social":{
                    "effect" : "positive",
                    "icon":"circle"
                 },
        "newsList":[]  
    },
    {
        "id":14,
        "heading":"$005380.KS",
        "title":"Reuters",
        "summary":"GE seeks to sell remaining Hyundai Capital stake: Hyundai Motor",
        "client":[  
                    {
                        "id" :4,
                        "effect":"negative"
                    },  
                    {
                        "id" :5,
                        "effect":"negative"
                    }                   
                 ],
        "action":"sell",
        "marketEffect":"positive",
        "marketAsessmentType":"Medium",
        "rating":{
                    "effect" : "negative",
                    "icon":"star"
                 },
        "momentum":{
                        "effect" : "positive",
                        "icon":"circle"
                   },
        "news":{
                    "effect" : "positive",
                    "icon":"circle"
               },
        "social":{
                    "effect" : "positive",
                    "icon":"circle"
                 },
        "newsList":[]  
    }
]