[
    {
        "id":1,
        "name":"ヨシダ・タクヤ",
        "dob":"1951-08-29",
        "photo":"img/client/TakuyaYoshida.png",
        "portfolio":{
                        "currency":"¥",
                        "description" : "日本株ファンド, 国際資産クラス混合型ファンド",
                        "value":10876555,
                        "performance":{
                                            "duration":"1年間のパフォーマンス",
                                            "percentage":-1.10,
                                            "amount":10876555,
                                            "previousAmount":-12456,
                                            "graph":"img/asset/currency-graph.png"
                                      },
                        "distribution" : {
                                            "equities":{
                                                            "percentage":45,
                                                            "ideal":35,
                                                            "value":100
                                                       },
                                            "fixed-income":{
                                                                "percentage":35,
                                                                "ideal":45,
                                                                "value":100
                                                            },
                                            "alternative":{
                                                                "percentage":10,
                                                                "ideal":5,
                                                                "value":100
                                                            },
                                            "cash":{
                                                                "percentage":10,
                                                                "ideal":15,
                                                                "value":100
                                                            }
                                         },
                        "assessmentType":"low-risk",
                        "assessmentTypeDescription":"現在、株式でオーバーウエイト、債券でアンダーウエイト。",
                        "label":"2016年12月9日現在のポートフォリオ価値"
                    },
        "impact":{
                    "positive":3,
                    "negative":3
                 },
        "contact" : {
                        "mobile" : "+81-9034821443",
                        "email":"takuyayoshida@cventures.com"
                  },
        "address":"東京都港区虎ノ門ヒルズ"
    },
    {
        "id":2,
        "name":"ハマダ・タダシ",
        "dob":"1957-03-11",
        "photo":"img/client/TadashiHamada.png",
        "portfolio":{
                        "currency":"¥",
                        "description" : "国際資産クラス混合型ファンド, 日本の債券ファンド",
                        "value":5500552.10,
                        "performance":{

                                            "duration":"1年間のパフォーマンス",
                                            "percentage":13.10,
                                            "amount":5500552.10,
                                            "previousAmount":178900.10,
                                            "graph":"img/asset/currency-graph.png"
                                      },
                        "distribution" : {
                                            "equity":{
                                                            "percentage":70,
                                                            "ideal":70,
                                                            "value":100
                                                       },
                                            "fixed-income":{
                                                                "percentage":5,
                                                                "ideal":15,
                                                                "value":100
                                                            },
                                            "alternative":{
                                                                "percentage":20,
                                                                "ideal":10,
                                                                "value":100
                                                            },
                                            "cash":{
                                                                "percentage":5,
                                                                "ideal":5,
                                                                "value":100
                                                            }
                                         },
                        "assessmentType":"high-risk",
                        "assessmentTypeDescription":"現在、債券でアンダーウエイト、オルタナティブでオーバーウエイト。",
                        "label":"2016年12月9日現在のポートフォリオ価値"
                    },
        "impact":{
                    "positive":7,
                    "negative":1
                 },
        "contact" : {
                        "mobile" : "+81-70348212343",
                        "email":"thamada@svholdings.com"
                  },
        "address":"東京都港区虎ノ門ヒルズ",
        "recommendationOrder":[1,2,11,4,5]
    },

    {
        "id":3,
        "name":"ナカムラ・ヒロ",
        "dob":"1968-03-11",
        "photo":"img/client/HiroNakamura.png",
        "portfolio":{
                        "currency":"¥",
                        "description" : "日本の債券ファンド, 日本株ファンド",
                        "value":6005243.54,
                        "performance":{
                                            "duration":"1年間のパフォーマンス",
                                            "percentage":1.4,
                                            "amount":6005243.54,
                                            "previousAmount":11832.30,
                                            "graph":"img/asset/currency-graph.png"
                                      },
                        "distribution" : {
                                            "equities":{
                                                            "percentage":25,
                                                            "ideal":50,
                                                            "value":100
                                                       },
                                            "fixed-income":{
                                                                "percentage":40,
                                                                "ideal":30,
                                                                "value":100
                                                            },
                                            "alternative":{
                                                                "percentage":10,
                                                                "ideal":10,
                                                                "value":100
                                                            },
                                            "cash":{
                                                                "percentage":25,
                                                                "ideal":10,
                                                                "value":100
                                                            }
                                         },
                        "assessmentType":"medium-risk",
                        "assessmentTypeDescription":"現在、株式でアンダーウエイト、債券と現金でオーバーウエイト。",
                        "label":"2016年12月9日現在のポートフォリオ価値"
                    },
        "impact":{
                    "positive":4,
                    "negative":2
                 },
        "contact" : {
                        "mobile" : "+81-8924821443",
                        "email":"hiro@gmail.com"
                  },
        "address":"東京都港区虎ノ門ヒルズ",
        "recommendationOrder":[1,2,11,9,4]
    },

    {
        "id":4,
        "name":"ムラカミ・シンジ",
        "dob":"1963-03-11",
        "photo":"img/client/ShinjiMurakami.png",
        "portfolio":{
                        "currency":"¥",
                        "description" : "新興市場債券ファンド",
                        "value":1950009.16,
                        "performance":{
                                            "duration":"1年間のパフォーマンス",
                                            "percentage":3.10,
                                            "amount":1950009.16,
                                            "previousAmount":65000.89,
                                            "graph":"img/asset/currency-graph.png"
                                      },
                        "distribution" : {
                                            "equities":{
                                                            "percentage":15,
                                                            "ideal":30,
                                                            "value":100
                                                       },
                                            "fixed-income":{
                                                                "percentage":60,
                                                                "ideal":50,
                                                                "value":100
                                                            },
                                            "alternative":{
                                                                "percentage":5,
                                                                "ideal":5,
                                                                "value":100
                                                            },
                                            "cash":{
                                                                "percentage":20,
                                                                "ideal":15,
                                                                "value":100
                                                            }
                                         },
                        "assessmentType":"low-risk",
                        "assessmentTypeDescription":"現在、株式でアンダーウエイト、債券と現金でオーバーウエイト。",
                        "label":"2016年12月9日現在のポートフォリオ価値"
                    },
        "impact":{
                    "positive":1,
                    "negative":4
                 },
        "contact" : {
                        "mobile" : "+81-8924965843",
                        "email":"smurakami@aventures.com"
                  },
        "address":"東京都港区虎ノ門ヒルズ"
    },
    {
        "id":5,
        "name":"ハヤシ・リョウ",
        "dob":"1975-10-05",
        "photo":"img/client/RyoHayashi.png",
        "portfolio":{
                        "currency":"¥",
                        "description" : "新興市場債券ファンド, 日本株ファンド",
                        "value":7567338.00,
                        "performance":{
                                            "duration":"1年間のパフォーマンス",
                                            "percentage":5.10,
                                            "amount":7567338.00,
                                            "previousAmount":45887.00,
                                            "graph":"img/asset/currency-graph.png"
                                      },
                        "distribution" : {
                                            "equities":{
                                                            "percentage":60,
                                                            "ideal":50,
                                                            "value":100
                                                       },
                                            "fixed-income":{
                                                                "percentage":20,
                                                                "ideal":30,
                                                                "value":100
                                                            },
                                            "alternative":{
                                                                "percentage":5,
                                                                "ideal":10,
                                                                "value":100
                                                            },
                                            "cash":{
                                                                "percentage":15,
                                                                "ideal":10,
                                                                "value":100
                                                            }
                                         },
                        "assessmentType":"medium-risk",
                        "assessmentTypeDescription":"現在、株式でアンダーウエイト、現金と債券でオーバーウエイト。",
                        "label":"2016年12月9日現在のポートフォリオ価値"
                    },
        "impact":{
                    "positive":2,
                    "negative":3
                 },
        "contact" : {
                        "mobile" : "+81-8924893743",
                        "email":"rhayashi@creditsuisse.com"
                  },
        "address":"東京都港区虎ノ門ヒルズ"
    },
    {
        "id":6,
        "name":"タナカ・チヒロ",
        "dob":"1965-10-05",
        "photo":"img/client/ChihiroTanaka.png",
        "portfolio":{
                        "currency":"¥",
                        "description" : "新興市場債券ファンド, 日本株ファンド",
                        "value":3287474.10,
                        "performance":{
                                            "duration":"1年間のパフォーマンス",
                                            "percentage":-8.10,
                                            "amount":3287474.10,
                                            "previousAmount":-24300.10,
                                            "graph":"img/asset/currency-graph.png"
                                      },
                        "distribution" : {
                                            "equities":{
                                                            "percentage":60,
                                                            "ideal":70,
                                                            "value":100
                                                       },
                                            "fixed-income":{
                                                                "percentage":20,
                                                                "ideal":15,
                                                                "value":100
                                                            },
                                            "alternative":{
                                                                "percentage":10,
                                                                "ideal":10,
                                                                "value":100
                                                            },
                                            "cash":{
                                                                "percentage":10,
                                                                "ideal":5,
                                                                "value":100
                                                            }
                                         },
                        "assessmentType":"high-risk",
                        "assessmentTypeDescription":"現在、株式でアンダーウエイト、債券と現金でオーバーウエイト。",
                        "label":"2016年12月9日現在のポートフォリオ価値"
                    },
        "impact":{
                    "positive":6,
                    "negative":2
                 },
        "contact" : {
                        "mobile" : "+81-5497965843",
                        "email":"chihirot@wc.com"
                  },
        "address":"東京都港区虎ノ門ヒルズ",
        "recommendationOrder":[1,2,11,5,9,4]
    }

]
