[
    {
        "id":1,
        "rank": 3,
        "heading":"LU0109394709",
        "title":"Franklin Biotechnology Discovery A (acc) USD", 
        "summary":"",
        "client":[   
                    {
                        "id" :1,
                        "effect":"positive"
                    },                
                    {
                        "id" :2,
                        "effect":"positive"
                    },
                    {
                        "id" :3,
                        "effect":"positive"
                    },
                    {
                        "id" :4,
                        "effect":"positive"
                    },                   
                    {
                        "id" :5,
                        "effect":"positive"
                    },
                    {
                        "id" :6,
                        "effect":"positive"
                    }
                 ],
        "action":"To Buy",
        "marketEffect":"positive",
        "marketAsessmentType":"Strong",
        "marketOrder":10,
        "rating":{
                    "effect" : "positive",
                    "icon":"circle"
                 },
        "momentum":{
                        "effect" : "positive",
                        "icon":"circle"
                   },
        "news":{
                    "effect" : "positive",
                    "icon":"star"
               },
        "social":{
                    "effect" : "positive",
                    "icon":"star"
                 },
        "newsList":[1,2],
        "totalReturn": -1.71,
        "consistentReturn": 0.10,
        "preservationReturn": 13.95,
        "expense": 1.83
    },{
        "id":2,
        "rank": 2,
        "heading":"LP60070102",
        "title":"Franklin Global Small-Mid Cap Growth A (acc) USD", 
        "summary":"",
        "client":[   
                    {
                        "id" :1,
                        "effect":"positive"
                    },                
                    {
                        "id" :2,
                        "effect":"positive"
                    },
                    {
                        "id" :3,
                        "effect":"positive"
                    },
                    {
                        "id" :4,
                        "effect":"positive"
                    },                   
                    {
                        "id" :5,
                        "effect":"positive"
                    },
                    {
                        "id" :6,
                        "effect":"positive"
                    }
                 ],
        "action":"To Sell",
        "marketEffect":"positive",
        "marketAsessmentType":"Strong",
        "marketOrder":10,
        "rating":{
                    "effect" : "positive",
                    "icon":"circle"
                 },
        "momentum":{
                        "effect" : "positive",
                        "icon":"circle"
                   },
        "news":{
                    "effect" : "positive",
                    "icon":"star"
               },
        "social":{
                    "effect" : "positive",
                    "icon":"star"
                 },
        "newsList":[3,4],
        "totalReturn": 0.71,
        "consistentReturn": -0.01,
        "preservationReturn": 3.28,
        "expense": 1.10
    },{
        "id":3,
        "rank": 6,
        "heading":"LU0231790675",
        "title":"Franklin Japan Fund - A (acc) EUR", 
        "summary":"",
        "client":[   
                    {
                        "id" :1,
                        "effect":"positive"
                    },                
                    {
                        "id" :2,
                        "effect":"positive"
                    },
                    {
                        "id" :3,
                        "effect":"positive"
                    },
                    {
                        "id" :4,
                        "effect":"positive"
                    },                   
                    {
                        "id" :5,
                        "effect":"positive"
                    },
                    {
                        "id" :6,
                        "effect":"positive"
                    }
                 ],
        "action":"To Buy",
        "marketEffect":"positive",
        "marketAsessmentType":"Strong",
        "marketOrder":10,
        "rating":{
                    "effect" : "positive",
                    "icon":"circle"
                 },
        "momentum":{
                        "effect" : "positive",
                        "icon":"circle"
                   },
        "news":{
                    "effect" : "positive",
                    "icon":"star"
               },
        "social":{
                    "effect" : "positive",
                    "icon":"star"
                 },
        "newsList":[5,6],
        "totalReturn": 0.742,
        "consistentReturn": 0.02,
        "preservationReturn": 1.77,
        "expense": 0.85
    },{
        "id":4,
        "rank": 10,
        "heading":"LU0140362707",
        "title":"Franklin Mutual Beacon Fund - A (acc) EUR", 
        "summary":"",
        "client":[   
                    {
                        "id" :1,
                        "effect":"positive"
                    },                
                    {
                        "id" :3,
                        "effect":"positive"
                    },
                    {
                        "id" :4,
                        "effect":"positive"
                    },
                    {
                        "id" :5,
                        "effect":"positive"
                    }                  
                 ],
        "action":"To Sell",
        "marketEffect":"positive",
        "marketAsessmentType":"Strong",
        "marketOrder":10,
        "rating":{
                    "effect" : "positive",
                    "icon":"circle"
                 },
        "momentum":{
                        "effect" : "positive",
                        "icon":"circle"
                   },
        "news":{
                    "effect" : "positive",
                    "icon":"star"
               },
        "social":{
                    "effect" : "positive",
                    "icon":"star"
                 },
        "newsList":[7,8],
        "totalReturn": 0.43,
        "consistentReturn": "--",
        "preservationReturn": "--",
        "expense": "--"
    },{
        "id":5,
        "rank": 1,
        "heading":"LU0229951891",
        "title":"Templeton Asian Bond Fund - A (acc) EUR", 
        "summary":"",
        "client":[   
                    {
                        "id" :2,
                        "effect":"positive"
                    },                
                    {
                        "id" :4,
                        "effect":"positive"
                    },
                    {
                        "id" :5,
                        "effect":"positive"
                    },
                    {
                        "id" :6,
                        "effect":"positive"
                    }
                 ],
        "action":"To Buy",
        "marketEffect":"positive",
        "marketAsessmentType":"Strong",
        "marketOrder":10,
        "rating":{
                    "effect" : "positive",
                    "icon":"circle"
                 },
        "momentum":{
                        "effect" : "positive",
                        "icon":"circle"
                   },
        "news":{
                    "effect" : "positive",
                    "icon":"star"
               },
        "social":{
                    "effect" : "positive",
                    "icon":"star"
                 },
        "newsList":[9,10],
        "totalReturn": 1.20,
        "consistentReturn": 0.07,
        "preservationReturn": 14.23,
        "expense": 0.84
    }, {
        "id":6,
        "rank": 4,
        "heading":"LU0909059023",
        "title":"Templeton Asian Dividend Fund - A (acc) USD", 
        "summary":"",
        "client":[   
                    {
                        "id" :1,
                        "effect":"positive"
                    },                
                    {
                        "id" :2,
                        "effect":"positive"
                    },
                    {
                        "id" :3,
                        "effect":"positive"
                    },
                    {
                        "id" :6,
                        "effect":"positive"
                    }
                 ],
        "action":"To Buy",
        "marketEffect":"positive",
        "marketAsessmentType":"Strong",
        "marketOrder":10,
        "rating":{
                    "effect" : "positive",
                    "icon":"circle"
                 },
        "momentum":{
                        "effect" : "positive",
                        "icon":"circle"
                   },
        "news":{
                    "effect" : "positive",
                    "icon":"star"
               },
        "social":{
                    "effect" : "positive",
                    "icon":"star"
                 },
        "newsList":[11,12],
        "totalReturn": -2.3,
        "consistentReturn": 0.05,
        "preservationReturn": 7.50,
        "expense": 2.57
    },{
        "id":7,
        "rank": 5,
        "heading":"LU0626262082",
        "title":"Templeton Emerging Markets Fund - A (acc) EUR-H1", 
        "summary":"",
        "client":[   
                    {
                        "id" :3,
                        "effect":"positive"
                    },                
                    {
                        "id" :4,
                        "effect":"positive"
                    },
                    {
                        "id" :5,
                        "effect":"positive"
                    }
                 ],
        "action":"To Buy",
        "marketEffect":"positive",
        "marketAsessmentType":"Strong",
        "marketOrder":10,
        "rating":{
                    "effect" : "positive",
                    "icon":"circle"
                 },
        "momentum":{
                        "effect" : "positive",
                        "icon":"circle"
                   },
        "news":{
                    "effect" : "positive",
                    "icon":"star"
               },
        "social":{
                    "effect" : "positive",
                    "icon":"star"
                 },
        "newsList":[13,14],
        "totalReturn": -0.85,
        "consistentReturn": 0.35,
        "preservationReturn": 12.61,
        "expense": 1.89
    },
    {
        "id":8,
        "rank": 7,
        "heading":"LU0260870661",
        "title":"Templeton Global Total Return Fund - A (acc) EUR", 
        "summary":"",
        "client":[   
                    {
                        "id" :1,
                        "effect":"positive"
                    },
                    {
                        "id" :2,
                        "effect":"positive"
                    }
                 ],
        "action":"To Buy",
        "marketEffect":"positive",
        "marketAsessmentType":"Strong",
        "marketOrder":10,
        "rating":{
                    "effect" : "positive",
                    "icon":"circle"
                 },
        "momentum":{
                        "effect" : "positive",
                        "icon":"circle"
                   },
        "news":{
                    "effect" : "positive",
                    "icon":"star"
               },
        "social":{
                    "effect" : "positive",
                    "icon":"star"
                 },
        "newsList":[15,16],
        "totalReturn": 0.44,
        "consistentReturn": 0.20,
        "preservationReturn": 4.39,
        "expense": "--"
    },
    {
        "id":9,
        "rank": 8,
        "heading":"LU0122612848",
        "title":"Franklin European Growth Fund - A (acc) EUR", 
        "summary":"",
        "client":[   
                    {
                        "id" :4,
                        "effect":"positive"
                    },
                    {
                        "id" :5,
                        "effect":"positive"
                    }
                 ],
        "action":"To Buy",
        "marketEffect":"positive",
        "marketAsessmentType":"Strong",
        "marketOrder":10,
        "rating":{
                    "effect" : "positive",
                    "icon":"circle"
                 },
        "momentum":{
                        "effect" : "positive",
                        "icon":"circle"
                   },
        "news":{
                    "effect" : "positive",
                    "icon":"star"
               },
        "social":{
                    "effect" : "positive",
                    "icon":"star"
                 },
        "newsList":[17,18],
        "totalReturn": 0.94,
        "consistentReturn": 0.25,
        "preservationReturn": 6.99,
        "expense": "--"
    },
    
    {
        "id":10,
        "rank": 9,
        "heading":"LU0078277505",
        "title":"Templeton Eastern Europe Fund - A (acc) EUR*", 
        "summary":"",
        "client":[   
                    {
                        "id" :2,
                        "effect":"positive"
                    },
                    {
                        "id" :4,
                        "effect":"positive"
                    }
                 ],
        "action":"To Buy",
        "marketEffect":"positive",
        "marketAsessmentType":"Strong",
        "marketOrder":10,
        "rating":{
                    "effect" : "positive",
                    "icon":"circle"
                 },
        "momentum":{
                        "effect" : "positive",
                        "icon":"circle"
                   },
        "news":{
                    "effect" : "positive",
                    "icon":"star"
               },
        "social":{
                    "effect" : "positive",
                    "icon":"star"
                 },
        "newsList":[19,20],
        "totalReturn": -0.58,
        "consistentReturn": 0.25,
        "preservationReturn": 6.99,
        "expense": "--"
    }
]